…
Moving on to grouped statistics, we can compute the average value added and employment by sector and country using:


```r
GGDC10S %>% 
  group_by(Variable, Country) %>%
  select_at(6:16) %>% fmean
# # A tibble: 85 × 13
#    Variable Country     AGR     MIN     MAN     PU    CON    WRT    TRA   FIRE     GOV    OTH    SUM
#    <chr>    <chr>     <dbl>   <dbl>   <dbl>  <dbl>  <dbl>  <dbl>  <dbl>  <dbl>   <dbl>  <dbl>  <dbl>
#  1 EMP      ARG       1420.   52.1   1932.  1.02e2 7.42e2 1.98e3 6.49e2  628.   2043.  9.92e2 1.05e4
#  2 EMP      BOL        964.   56.0    235.  5.35e0 1.23e2 2.82e2 1.15e2   44.6    NA   3.96e2 2.22e3
#  3 EMP      BRA      17191.  206.    6991.  3.65e2 3.52e3 8.51e3 2.05e3 4414.   5307.  5.71e3 5.43e4
#  4 EMP      BWA        188.   10.5     18.1 3.09e0 2.53e1 3.63e1 8.36e0   15.3    61.1 2.76e1 3.94e2
#  5 EMP      CHL        702.  101.     625.  2.94e1 2.96e2 6.95e2 2.58e2  272.     NA   1.00e3 3.98e3
#  6 EMP      CHN     287744. 7050.   67144.  1.61e3 2.09e4 2.89e4 1.39e4 4929.  22669.  3.10e4 4.86e5
#  7 EMP      COL       3091.  145.    1175.  3.39e1 5.24e2 2.07e3 4.70e2  649.     NA   1.73e3 9.89e3
#  8 EMP      CRI        231.    1.70   136.  1.43e1 5.76e1 1.57e2 4.24e1   54.9   128.  6.51e1 8.87e2
#  9 EMP      DEW       2490.  407.    8473.  2.26e2 2.09e3 4.44e3 1.48e3 1689.   3945.  9.99e2 2.62e4
# 10 EMP      DNK        236.    8.03   507.  1.38e1 1.71e2 4.55e2 1.61e2  181.    549.  1.11e2 2.39e3
# # ℹ 75 more rows
```
…
<!-- - It will also work with the fast functions, but is slower than using primitive base functions since the fast functions are S3 generic -.  -->

***

#### Excursus: What is Happening Behind the Scenes?
To better explain this point it is perhaps good to shed some light on what is happening behind the scenes of *dplyr* and *collapse*. Fundamentally both packages follow different computing paradigms: 

*dplyr* is an efficient implementation of the Split-Apply-Combine computing paradigm. Data is split into groups, these data-chunks are then passed to a function carrying out the computation, and finally recombined to produce the aggregated data.frame. 
<!-- The efficiency of that process depends on the efficiency of the grouping, splitting, the function(s) applied and the recombining.  -->
This modus operandi is evident in the grouping mechanism of *dplyr*. When a data.frame is passed through *group_by*, a 'groups' attribute is attached: 


```r
GGDC10S %>% group_by(Variable, Country) %>% attr("groups")
# # A tibble: 85 × 3
#    Variable Country       .rows
#    <chr>    <chr>   <list<int>>
#  1 EMP      ARG            [62]
#  2 EMP      BOL            [61]
#  3 EMP      BRA            [62]
#  4 EMP      BWA            [52]
#  5 EMP      CHL            [63]
#  6 EMP      CHN            [62]
#  7 EMP      COL            [61]
#  8 EMP      CRI            [62]
#  9 EMP      DEW            [61]
# 10 EMP      DNK            [64]
# # ℹ 75 more rows
```
…
It is obvious that *collapse* is faster than *dplyr* since it's method of computing involves less steps, and it does not need to call statistical functions multiple times. See the benchmark section.
<!-- This performance gain is realized especially as data become large, since the conversion perfomed by `GRP.grouped_df` also involves a small computational cost.  -->

***

### 1.2 More Speed using *collapse* Verbs
*collapse* fast functions do not develop their maximal performance on a grouped tibble created with `group_by` because of the additional conversion cost of the grouping object incurred by `GRP.grouped_df`. This cost is already minimized through the use of C++, but we can do even better replacing `group_by` with `collapse::fgroup_by`. `fgroup_by` works like `group_by` but does the grouping with `collapse::GRP` (up to 10x faster than `group_by`) and simply attaches a *collapse* grouping object to the grouped_df. Thus the speed gain is 2-fold: Faster grouping and no conversion cost when calling *collapse* functions.

Another improvement comes from replacing the *dplyr* verb `select` with `collapse::fselect`, and, for selection using column names, indices or functions use `collapse::get_vars` instead of `select_at` or `select_if`. Next to `get_vars`, *collapse* also introduces the predicates `num_vars`, `cat_vars`, `char_vars`, `fact_vars`, `logi_vars` and `date_vars` to efficiently select columns by type.


```r
GGDC10S %>% fgroup_by(Variable, Country) %>% get_vars(6:16) %>% fmedian
# # A tibble: 85 × 13
#    Variable Country     AGR     MIN     MAN     PU    CON    WRT    TRA   FIRE     GOV    OTH    SUM
#    <chr>    <chr>     <dbl>   <dbl>   <dbl>  <dbl>  <dbl>  <dbl>  <dbl>  <dbl>   <dbl>  <dbl>  <dbl>
#  1 EMP      ARG       1325.   47.4   1988.  1.05e2 7.82e2 1.85e3 5.80e2  464.   1739.   866.  9.74e3
#  2 EMP      BOL        943.   53.5    167.  4.46e0 6.60e1 1.32e2 9.70e1   15.3    NA    384.  1.84e3
#  3 EMP      BRA      17481.  225.    7208.  3.76e2 4.05e3 6.45e3 1.58e3 4355.   4450.  4479.  5.19e4
#  4 EMP      BWA        175.   12.2     13.1 3.71e0 1.90e1 2.11e1 6.75e0   10.4    53.8   31.2 3.61e2
#  5 EMP      CHL        690.   93.9    607.  2.58e1 2.30e2 4.84e2 2.05e2  106.     NA    900.  3.31e3
#  6 EMP      CHN     293915  8150.   61761.  1.14e3 1.06e4 1.70e4 9.56e3 4328.  19468.  9954.  4.45e5
#  7 EMP      COL       3006.   84.0   1033.  3.71e1 4.19e2 1.55e3 3.91e2  655.     NA   1430.  8.63e3
#  8 EMP      CRI        216.    1.49   114.  7.92e0 5.50e1 8.98e1 2.55e1   19.6   122.    60.6 7.19e2
#  9 EMP      DEW       2178   320.    8459.  2.47e2 2.10e3 4.45e3 1.53e3 1656    3700    900   2.65e4
# 10 EMP      DNK        187.    3.75   508.  1.36e1 1.65e2 4.61e2 1.61e2  169.    642.   104.  2.42e3
# # ℹ 75 more rows
…
class(fgroup_by(GGDC10S, Variable, Country))
# [1] "GRP_df"     "tbl_df"     "tbl"        "grouped_df" "data.frame"
```

 The function `fungroup` removes classes 'GDP_df' and 'grouped_df' and the 'groups' attribute (and can thus also be used for grouped tibbles created with `dplyr::group_by`). 
 
 Note that any kind of data frame based class can be grouped with `fgroup_by`, and still retain full responsiveness to all methods defined for that class. Functions performing aggregation on the grouped data frame remove the grouping object and classes afterwards, yielding an object with the same class and attributes as the input. 

The print method shown below reports the grouping variables, and then in square brackets the information `[number of groups | average group size (standard-deviation of group sizes)]`:


```r
fgroup_by(GGDC10S, Variable, Country)
# # A tibble: 5,027 × 16
#    Country Regioncode Region Variable  Year   AGR   MIN    MAN     PU    CON   WRT   TRA  FIRE   GOV
#    <chr>   <chr>      <chr>  <chr>    <dbl> <dbl> <dbl>  <dbl>  <dbl>  <dbl> <dbl> <dbl> <dbl> <dbl>
#  1 BWA     SSA        Sub-s… VA        1960  NA   NA    NA     NA     NA     NA    NA    NA    NA   
#  2 BWA     SSA        Sub-s… VA        1961  NA   NA    NA     NA     NA     NA    NA    NA    NA   
#  3 BWA     SSA        Sub-s… VA        1962  NA   NA    NA     NA     NA     NA    NA    NA    NA   
#  4 BWA     SSA        Sub-s… VA        1963  NA   NA    NA     NA     NA     NA    NA    NA    NA   
#  5 BWA     SSA        Sub-s… VA        1964  16.3  3.49  0.737  0.104  0.660  6.24  1.66  1.12  4.82
#  6 BWA     SSA        Sub-s… VA        1965  15.7  2.50  1.02   0.135  1.35   7.06  1.94  1.25  5.70
#  7 BWA     SSA        Sub-s… VA        1966  17.7  1.97  0.804  0.203  1.35   8.27  2.15  1.36  6.37
#  8 BWA     SSA        Sub-s… VA        1967  19.1  2.30  0.938  0.203  0.897  4.31  1.72  1.54  7.04
#  9 BWA     SSA        Sub-s… VA        1968  21.1  1.84  0.750  0.203  1.22   5.17  2.44  1.03  5.03
# 10 BWA     SSA        Sub-s… VA        1969  21.9  5.24  2.14   0.578  3.47   5.75  2.72  1.23  5.59
# # ℹ 5,017 more rows
# # ℹ 2 more variables: OTH <dbl>, SUM <dbl>
# 
# Grouped by:  Variable, Country  [85 | 59 (7.7) 4-65]
```
…
<!-- It is also possible to center data points on the overall mean, which is achieved by subtracting out group means and adding the overall mean of the data again: -->
<!-- ```{r} -->
<!-- # This group-centers data on the overall mean of the data -->
<!-- GGDC10S %>% -->
<!--   group_by(Variable, Country) %>% -->
<!--     select_at(6:16) %>% fmean(TRA = "-+") -->
<!-- ``` -->
Sequential operations are also easily performed:

```r
# This scales and then subtracts the median
GGDC10S %>%
  fselect(Variable, Country, AGR:SUM) %>% 
   fgroup_by(Variable, Country) %>% fsd(TRA = "/") %>% fmedian(TRA = "-")
# # A tibble: 5,027 × 13
#    Variable Country    AGR    MIN    MAN     PU    CON     WRT     TRA    FIRE    GOV     OTH    SUM
#  * <chr>    <chr>    <dbl>  <dbl>  <dbl>  <dbl>  <dbl>   <dbl>   <dbl>   <dbl>  <dbl>   <dbl>  <dbl>
#  1 VA       BWA     NA     NA     NA     NA     NA     NA      NA      NA      NA     NA      NA    
#  2 VA       BWA     NA     NA     NA     NA     NA     NA      NA      NA      NA     NA      NA    
#  3 VA       BWA     NA     NA     NA     NA     NA     NA      NA      NA      NA     NA      NA    
#  4 VA       BWA     NA     NA     NA     NA     NA     NA      NA      NA      NA     NA      NA    
#  5 VA       BWA     -0.182 -0.235 -0.183 -0.245 -0.118 -0.0820 -0.0724 -0.0661 -0.108 -0.0848 -0.146
#  6 VA       BWA     -0.183 -0.235 -0.183 -0.245 -0.117 -0.0817 -0.0722 -0.0660 -0.108 -0.0846 -0.146
#  7 VA       BWA     -0.180 -0.235 -0.183 -0.245 -0.117 -0.0813 -0.0720 -0.0659 -0.107 -0.0843 -0.145
#  8 VA       BWA     -0.177 -0.235 -0.183 -0.245 -0.117 -0.0826 -0.0724 -0.0659 -0.107 -0.0841 -0.146
#  9 VA       BWA     -0.174 -0.235 -0.183 -0.245 -0.117 -0.0823 -0.0717 -0.0661 -0.108 -0.0848 -0.146
# 10 VA       BWA     -0.173 -0.234 -0.182 -0.243 -0.115 -0.0821 -0.0715 -0.0660 -0.108 -0.0846 -0.145
# # ℹ 5,017 more rows
# 
# Grouped by:  Variable, Country  [85 | 59 (7.7) 4-65]
```
…
Apart from `fbetween` and `fwithin`, the function `fscale` exists to efficiently scale and center data, to avoid sequential calls such as `... %>% fsd(TRA = "/") %>% fmean(TRA = "-")`.  


```r
# This efficiently scales and centers (i.e. standardizes) the data
GGDC10S %>%
  fgroup_by(Variable, Country) %>%
    fselect(Country, Variable, AGR:SUM) %>% fscale
# # A tibble: 5,027 × 13
#    Country Variable    AGR    MIN    MAN     PU    CON    WRT    TRA   FIRE    GOV    OTH    SUM
#  * <chr>   <chr>     <dbl>  <dbl>  <dbl>  <dbl>  <dbl>  <dbl>  <dbl>  <dbl>  <dbl>  <dbl>  <dbl>
#  1 BWA     VA       NA     NA     NA     NA     NA     NA     NA     NA     NA     NA     NA    
#  2 BWA     VA       NA     NA     NA     NA     NA     NA     NA     NA     NA     NA     NA    
#  3 BWA     VA       NA     NA     NA     NA     NA     NA     NA     NA     NA     NA     NA    
#  4 BWA     VA       NA     NA     NA     NA     NA     NA     NA     NA     NA     NA     NA    
#  5 BWA     VA       -0.738 -0.717 -0.668 -0.805 -0.692 -0.603 -0.589 -0.635 -0.656 -0.596 -0.676
#  6 BWA     VA       -0.739 -0.717 -0.668 -0.805 -0.692 -0.603 -0.589 -0.635 -0.656 -0.596 -0.676
#  7 BWA     VA       -0.736 -0.717 -0.668 -0.805 -0.692 -0.603 -0.589 -0.635 -0.656 -0.595 -0.676
#  8 BWA     VA       -0.734 -0.717 -0.668 -0.805 -0.692 -0.604 -0.589 -0.635 -0.655 -0.595 -0.676
#  9 BWA     VA       -0.730 -0.717 -0.668 -0.805 -0.692 -0.604 -0.588 -0.635 -0.656 -0.596 -0.676
# 10 BWA     VA       -0.729 -0.716 -0.667 -0.803 -0.690 -0.603 -0.588 -0.635 -0.656 -0.596 -0.675
# # ℹ 5,017 more rows
# 
# Grouped by:  Variable, Country  [85 | 59 (7.7) 4-65]
```
…
# This calculates the within- standard deviation for all columns
fsd(num_vars(ungroup(fwithin(gGGDC))))
#       AGR       MIN       MAN        PU       CON       WRT       TRA      FIRE       GOV       OTH 
#  45046972  40122220  75608708   3062688  30811572  44125207  20676901  16030868  20358973  18780869 
#       SUM 
# 306429102

# This scales all groups to take on the within- standard deviation while preserving group means 
fsd(fscale(gGGDC, mean = FALSE, sd = "within.sd"))
# # A tibble: 43 × 12
#    Country       AGR       MIN       MAN       PU     CON    WRT    TRA   FIRE     GOV    OTH    SUM
#    <chr>       <dbl>     <dbl>     <dbl>    <dbl>   <dbl>  <dbl>  <dbl>  <dbl>   <dbl>  <dbl>  <dbl>
#  1 ARG     45046972. 40122220. 75608708. 3062688.  3.08e7 4.41e7 2.07e7 1.60e7  2.04e7 1.88e7 3.06e8
#  2 BOL     45046972. 40122220. 75608708. 3062688.  3.08e7 4.41e7 2.07e7 1.60e7 NA      1.88e7 3.06e8
#  3 BRA     45046972. 40122220. 75608708. 3062688.  3.08e7 4.41e7 2.07e7 1.60e7  2.04e7 1.88e7 3.06e8
#  4 BWA     45046972. 40122220. 75608708. 3062688.  3.08e7 4.41e7 2.07e7 1.60e7  2.04e7 1.88e7 3.06e8
#  5 CHL     45046972. 40122220. 75608708. 3062688.  3.08e7 4.41e7 2.07e7 1.60e7 NA      1.88e7 3.06e8
#  6 CHN     45046972. 40122220. 75608708. 3062688.  3.08e7 4.41e7 2.07e7 1.60e7  2.04e7 1.88e7 3.06e8
#  7 COL     45046972. 40122220. 75608708. 3062688.  3.08e7 4.41e7 2.07e7 1.60e7 NA      1.88e7 3.06e8
#  8 CRI     45046972. 40122220. 75608708. 3062688.  3.08e7 4.41e7 2.07e7 1.60e7  2.04e7 1.88e7 3.06e8
#  9 DEW     45046972. 40122220. 75608708. 3062688.  3.08e7 4.41e7 2.07e7 1.60e7  2.04e7 1.88e7 3.06e8
# 10 DNK     45046972. 40122220. 75608708. 3062688.  3.08e7 4.41e7 2.07e7 1.60e7  2.04e7 1.88e7 3.06e8
# # ℹ 33 more rows
```
…
### 2.5 Lags / Leads, Differences and Growth Rates

<!-- It was suggested some time ago that leaving the best wine for the end is not the best strategy when giving a feast. Considering the marriage of *collapse* and *dplyr* the 3 functions for time-computations introduced in this section combine great flexibility with precision and computing power, and feature amongst the highlights of *collapse*. -->

This section introduces 3 further powerful *collapse* functions: `flag`, `fdiff` and `fgrowth`. The first function, `flag`, efficiently computes sequences of fully identified lags and leads on time series and panel data. The following code computes 1 fully-identified panel-lag and 1 fully identified panel-lead of each variable in the data:

<!-- In addition: None of these functions require the data to be sorted, they can carry out fast computations on completely unordered data as long as a time-variable is supplied that uniquely identifies the data. -->

```r
GGDC10S %>%
  fselect(-Region, -Regioncode) %>% 
    fgroup_by(Variable, Country) %>% flag(-1:1, Year)
# # A tibble: 5,027 × 36
#    Country Variable  Year F1.AGR   AGR L1.AGR F1.MIN   MIN L1.MIN F1.MAN    MAN L1.MAN  F1.PU     PU
#  * <chr>   <chr>    <dbl>  <dbl> <dbl>  <dbl>  <dbl> <dbl>  <dbl>  <dbl>  <dbl>  <dbl>  <dbl>  <dbl>
#  1 BWA     VA        1960   NA    NA     NA    NA    NA     NA    NA     NA     NA     NA     NA    
#  2 BWA     VA        1961   NA    NA     NA    NA    NA     NA    NA     NA     NA     NA     NA    
#  3 BWA     VA        1962   NA    NA     NA    NA    NA     NA    NA     NA     NA     NA     NA    
#  4 BWA     VA        1963   16.3  NA     NA     3.49 NA     NA     0.737 NA     NA      0.104 NA    
#  5 BWA     VA        1964   15.7  16.3   NA     2.50  3.49  NA     1.02   0.737 NA      0.135  0.104
#  6 BWA     VA        1965   17.7  15.7   16.3   1.97  2.50   3.49  0.804  1.02   0.737  0.203  0.135
#  7 BWA     VA        1966   19.1  17.7   15.7   2.30  1.97   2.50  0.938  0.804  1.02   0.203  0.203
#  8 BWA     VA        1967   21.1  19.1   17.7   1.84  2.30   1.97  0.750  0.938  0.804  0.203  0.203
#  9 BWA     VA        1968   21.9  21.1   19.1   5.24  1.84   2.30  2.14   0.750  0.938  0.578  0.203
# 10 BWA     VA        1969   23.1  21.9   21.1  10.2   5.24   1.84  4.15   2.14   0.750  1.12   0.578
# # ℹ 5,017 more rows
# # ℹ 22 more variables: L1.PU <dbl>, F1.CON <dbl>, CON <dbl>, L1.CON <dbl>, F1.WRT <dbl>, WRT <dbl>,
# #   L1.WRT <dbl>, F1.TRA <dbl>, TRA <dbl>, L1.TRA <dbl>, F1.FIRE <dbl>, FIRE <dbl>, L1.FIRE <dbl>,
# #   F1.GOV <dbl>, GOV <dbl>, L1.GOV <dbl>, F1.OTH <dbl>, OTH <dbl>, L1.OTH <dbl>, F1.SUM <dbl>,
# #   SUM <dbl>, L1.SUM <dbl>
# 
# Grouped by:  Variable, Country  [85 | 59 (7.7) 4-65]
```

If the time-variable passed does not exactly identify the data (i.e. because of repeated values in each group), all 3 functions will issue appropriate error messages. `flag`, `fdiff` and `fgrowth` support irregular time series and unbalanced panels. <!-- with different start and end periods and duration of coverage for each individual, but not irregular panels. A workaround for such panels exists with the function `seqid` which generates a new panel-id identifying consecutive time-sequences at the sub-individual level, see `?seqid`. -->

It is also possible to omit the time-variable if one is certain that the data is sorted:

```r
GGDC10S %>%
  fselect(Variable, Country,AGR:SUM) %>% 
    fgroup_by(Variable, Country) %>% flag
# # A tibble: 5,027 × 13
#    Variable Country   AGR   MIN    MAN     PU    CON   WRT   TRA  FIRE   GOV   OTH   SUM
#  * <chr>    <chr>   <dbl> <dbl>  <dbl>  <dbl>  <dbl> <dbl> <dbl> <dbl> <dbl> <dbl> <dbl>
#  1 VA       BWA      NA   NA    NA     NA     NA     NA    NA    NA    NA    NA     NA  
#  2 VA       BWA      NA   NA    NA     NA     NA     NA    NA    NA    NA    NA     NA  
#  3 VA       BWA      NA   NA    NA     NA     NA     NA    NA    NA    NA    NA     NA  
#  4 VA       BWA      NA   NA    NA     NA     NA     NA    NA    NA    NA    NA     NA  
#  5 VA       BWA      NA   NA    NA     NA     NA     NA    NA    NA    NA    NA     NA  
#  6 VA       BWA      16.3  3.49  0.737  0.104  0.660  6.24  1.66  1.12  4.82  2.34  37.5
#  7 VA       BWA      15.7  2.50  1.02   0.135  1.35   7.06  1.94  1.25  5.70  2.68  39.3
#  8 VA       BWA      17.7  1.97  0.804  0.203  1.35   8.27  2.15  1.36  6.37  2.99  43.1
#  9 VA       BWA      19.1  2.30  0.938  0.203  0.897  4.31  1.72  1.54  7.04  3.31  41.4
# 10 VA       BWA      21.1  1.84  0.750  0.203  1.22   5.17  2.44  1.03  5.03  2.36  41.1
# # ℹ 5,017 more rows
# 
# Grouped by:  Variable, Country  [85 | 59 (7.7) 4-65]
```
…
