Fast (Grouped) Distinct Value Count for Matrix-Like Objects — fndistinct • collapse
…
## method for grouped data frames - created with dplyr::group_by or fgroup_by
library(dplyr)
airquality %>% group_by(Month) %>% fndistinct()
#> # A tibble: 5 × 6
#>   Month Ozone Solar.R  Wind  Temp   Day
#>   <int> <int>   <int> <int> <int> <int>
#> 1     5    21      27    18    18    31
#> 2     6     9      28    16    19    30
#> 3     7    24      29    17    14    31
#> 4     8    24      27    18    19    31
#> 5     9    21      27    19    20    30
wlddev %>% group_by(country) %>%
             select(PCGDP,LIFEEX,GINI,ODA) %>% fndistinct()
#> Adding missing grouping variables: `country`
#> # A tibble: 216 × 5
#>    country             PCGDP LIFEEX  GINI   ODA
#>    <chr>               <int>  <int> <int> <int>
#>  1 Afghanistan            18     60     0    60
#>  2 Albania                40     59     9    32
#>  3 Algeria                60     60     3    60
#>  4 American Samoa         17      0     0     0
#>  5 Andorra                50      0     0     0
#>  6 Angola                 40     59     3    58
#>  7 Antigua and Barbuda    43     60     0    47
#>  8 Argentina              60     60    29    60
#>  9 Armenia                30     59    20    29
#> 10 Aruba                  32     60     0    20
#> # ℹ 206 more rows
…
