Fast (Grouped) Observation Count for Matrix-Like Objects — fnobs • collapse
…
## method for grouped data frames - created with dplyr::group_by or fgroup_by
library(dplyr)
airquality %>% group_by(Month) %>% fnobs()
#> # A tibble: 5 × 6
#>   Month Ozone Solar.R  Wind  Temp   Day
#>   <int> <int>   <int> <int> <int> <int>
#> 1     5    26      27    31    31    31
#> 2     6     9      30    30    30    30
#> 3     7    26      31    31    31    31
#> 4     8    26      28    31    31    31
#> 5     9    29      30    30    30    30
wlddev %>% group_by(country) %>%
           select(PCGDP,LIFEEX,GINI,ODA) %>% fnobs()
#> Adding missing grouping variables: `country`
#> # A tibble: 216 × 5
#>    country             PCGDP LIFEEX  GINI   ODA
#>    <chr>               <int>  <int> <int> <int>
#>  1 Afghanistan            18     60     0    60
#>  2 Albania                40     60     9    32
#>  3 Algeria                60     60     3    60
#>  4 American Samoa         17      0     0     0
#>  5 Andorra                50      0     0     0
#>  6 Angola                 40     60     3    58
#>  7 Antigua and Barbuda    43     60     0    47
#>  8 Argentina              60     60    31    60
#>  9 Armenia                30     60    20    29
#> 10 Aruba                  32     60     0    20
#> # ℹ 206 more rows
…
