…
# Advanced operations not supported by arrow -----------------------------------

# Whenever an expression is not supported you get a message like this and dplyr does the computation
taxi_arrow |>
  group_by(vendor_id, pickup_location_id, dropoff_location_id, passenger_count) |>
  mutate(total_amount = cumsum(total_amount)) |> collect()
#> Warning: Expression cumsum(total_amount) not supported in Arrow; pulling data
#> into R
#> # A tibble: 10,000,000 × 17
#> # Groups:   vendor_id, pickup_location_id, dropoff_location_id, passenger_count
#> #   [210,638]
#>    vendor_id pickup_datetime     dropoff_datetime    passenger_count
#>        <int> <dttm>              <dttm>                        <int>
#>  1         2 2018-02-02 11:18:23 2018-02-02 11:58:09               1
#>  2         1 2018-02-02 11:43:58 2018-02-02 12:08:49               1
#>  3         1 2018-02-02 13:50:55 2018-02-02 14:18:37               2
#>  4         1 2018-02-02 13:04:12 2018-02-02 13:38:32               1
#>  5         2 2018-02-02 14:42:41 2018-02-02 14:57:12               1
#>  6         1 2018-02-02 14:36:20 2018-02-02 15:14:20               2
#>  7         2 2018-02-02 15:35:16 2018-02-02 15:37:08               1
#>  8         2 2018-09-17 10:53:42 2018-09-17 11:33:22               2
#>  9         2 2018-09-17 10:24:50 2018-09-17 10:53:54               2
#> 10         1 2018-09-17 11:28:05 2018-09-17 12:02:10               1
#> # … with 9,999,990 more rows, and 13 more variables: trip_distance <dbl>,
#> #   rate_code <int>, store_and_fwd_flag <chr>, payment_type <int>,
#> #   fare_amount <dbl>, extra <dbl>, mta_tax <dbl>, tip_amount <dbl>,
#> #   tolls_amount <dbl>, imp_surcharge <dbl>, total_amount <dbl>,
#> #   pickup_location_id <int>, dropoff_location_id <int>
…
