Apply Functions Across Multiple Columns — across • collapse
…
# Note that the above still detects fmean as a fast function, the names of the list
# are irrelevant, but the function name must be typed or passed as a character vector,
# Otherwise functions will be executed by groups e.g. function(x) fmean(x) won't vectorize
# \donttest{
# Or we want to do more advanced things..
# Such as nesting data frames..
qTBL(wlddev) %>% fgroup_by(region, income) %>%
    fsummarise(across(c(PCGDP, LIFEEX, ODA),
               function(x) list(Nest = list(x)),
               .apply = FALSE))

#> # A tibble: 23 x 3
#>    region                    income              Nest                    
#>    <fct>                     <fct>               <list>                  
#>  1 East Asia & Pacific       High income         <tibble[,3] [793 x 3]>  
#>  2 East Asia & Pacific       Lower middle income <tibble[,3] [793 x 3]>  
#>  3 East Asia & Pacific       Upper middle income <tibble[,3] [610 x 3]>  
#>  4 Europe & Central Asia     High income         <tibble[,3] [2,257 x 3]>
#>  5 Europe & Central Asia     Low income          <tibble[,3] [61 x 3]>   
#>  6 Europe & Central Asia     Lower middle income <tibble[,3] [244 x 3]>  
#>  7 Europe & Central Asia     Upper middle income <tibble[,3] [976 x 3]>  
#>  8 Latin America & Caribbean High income         <tibble[,3] [1,037 x 3]>
#>  9 Latin America & Caribbean Low income          <tibble[,3] [61 x 3]>   
#> 10 Latin America & Caribbean Lower middle income <tibble[,3] [244 x 3]>  
#> # ... with 13 more rows
# Or linear models..
qTBL(wlddev) %>% fgroup_by(region, income) %>%
    fsummarise(across(c(PCGDP, LIFEEX, ODA),
               function(x) list(Mods = list(lm(PCGDP ~., x))),
               .apply = FALSE))

#> # A tibble: 23 x 3
#>    region                    income              Mods  
#>    <fct>                     <fct>               <list>
#>  1 East Asia & Pacific       High income         <lm>  
#>  2 East Asia & Pacific       Lower middle income <lm>  
#>  3 East Asia & Pacific       Upper middle income <lm>  
#>  4 Europe & Central Asia     High income         <lm>  
#>  5 Europe & Central Asia     Low income          <lm>  
#>  6 Europe & Central Asia     Lower middle income <lm>  
#>  7 Europe & Central Asia     Upper middle income <lm>  
#>  8 Latin America & Caribbean High income         <lm>  
#>  9 Latin America & Caribbean Low income          <lm>  
#> 10 Latin America & Caribbean Lower middle income <lm>  
#> # ... with 13 more rows
# Or cumputing grouped correlation matrices
qTBL(wlddev) %>% fgroup_by(region, income) %>%
    fsummarise(across(c(PCGDP, LIFEEX, ODA),
      function(x) qDF(pwcor(x), "Variable"), .apply = FALSE))

#> # A tibble: 69 x 6
#>    region                income              Variable  PCGDP  LIFEEX     ODA
#>    <fct>                 <fct>               <chr>     <dbl>   <dbl>   <dbl>
#>  1 East Asia & Pacific   High income         PCGDP     1      0.662  -0.388 
#>  2 East Asia & Pacific   High income         LIFEEX    0.662  1      -0.444 
#>  3 East Asia & Pacific   High income         ODA      -0.388 -0.444   1     
#>  4 East Asia & Pacific   Lower middle income PCGDP     1      0.395  -0.146 
#>  5 East Asia & Pacific   Lower middle income LIFEEX    0.395  1       0.206 
#>  6 East Asia & Pacific   Lower middle income ODA      -0.146  0.206   1     
#>  7 East Asia & Pacific   Upper middle income PCGDP     1      0.700  -0.378 
#>  8 East Asia & Pacific   Upper middle income LIFEEX    0.700  1       0.0796
#>  9 East Asia & Pacific   Upper middle income ODA      -0.378  0.0796  1     
#> 10 Europe & Central Asia High income         PCGDP     1      0.586  -0.329 
#> # ... with 59 more rows
# }
# Here calculating 1- and 10-year lags and growth rates of these variables
qTBL(wlddev) %>% fgroup_by(country) %>%
    fmutate(across(c(PCGDP, LIFEEX, ODA), list(L, G),
                   n = c(1, 10), t = year, .names = FALSE))

#> # A tibble: 13,176 x 25
#>    country  iso3c date        year decade region income OECD  PCGDP LIFEEX  GINI
#>    <chr>    <fct> <date>     <int>  <int> <fct>  <fct>  <lgl> <dbl>  <dbl> <dbl>
#>  1 Afghani~ AFG   1961-01-01  1960   1960 South~ Low i~ FALSE    NA   32.4    NA
#>  2 Afghani~ AFG   1962-01-01  1961   1960 South~ Low i~ FALSE    NA   33.0    NA
#>  3 Afghani~ AFG   1963-01-01  1962   1960 South~ Low i~ FALSE    NA   33.5    NA
#>  4 Afghani~ AFG   1964-01-01  1963   1960 South~ Low i~ FALSE    NA   34.0    NA
#>  5 Afghani~ AFG   1965-01-01  1964   1960 South~ Low i~ FALSE    NA   34.5    NA
#>  6 Afghani~ AFG   1966-01-01  1965   1960 South~ Low i~ FALSE    NA   34.9    NA
#>  7 Afghani~ AFG   1967-01-01  1966   1960 South~ Low i~ FALSE    NA   35.4    NA
#>  8 Afghani~ AFG   1968-01-01  1967   1960 South~ Low i~ FALSE    NA   35.9    NA
#>  9 Afghani~ AFG   1969-01-01  1968   1960 South~ Low i~ FALSE    NA   36.4    NA
#> 10 Afghani~ AFG   1970-01-01  1969   1960 South~ Low i~ FALSE    NA   36.9    NA
#> # ... with 13,166 more rows, and 14 more variables: ODA <dbl>, POP <dbl>,
#> #   L1.PCGDP <dbl>, G1.PCGDP <dbl>, L10.PCGDP <dbl>, L10G1.PCGDP <dbl>,
#> #   L1.LIFEEX <dbl>, G1.LIFEEX <dbl>, L10.LIFEEX <dbl>, L10G1.LIFEEX <dbl>,
#> #   L1.ODA <dbl>, G1.ODA <dbl>, L10.ODA <dbl>, L10G1.ODA <dbl>
#> 
#> Grouped by:  country  [216 | 61 (0)] 

# Same but variables in different order
qTBL(wlddev) %>% fgroup_by(country) %>%
    fmutate(across(c(PCGDP, LIFEEX, ODA), list(L, G), n = c(1, 10),
                   t = year, .names = FALSE, .transpose = FALSE))

#> # A tibble: 13,176 x 25
#>    country  iso3c date        year decade region income OECD  PCGDP LIFEEX  GINI
#>    <chr>    <fct> <date>     <int>  <int> <fct>  <fct>  <lgl> <dbl>  <dbl> <dbl>
#>  1 Afghani~ AFG   1961-01-01  1960   1960 South~ Low i~ FALSE    NA   32.4    NA
#>  2 Afghani~ AFG   1962-01-01  1961   1960 South~ Low i~ FALSE    NA   33.0    NA
#>  3 Afghani~ AFG   1963-01-01  1962   1960 South~ Low i~ FALSE    NA   33.5    NA
#>  4 Afghani~ AFG   1964-01-01  1963   1960 South~ Low i~ FALSE    NA   34.0    NA
#>  5 Afghani~ AFG   1965-01-01  1964   1960 South~ Low i~ FALSE    NA   34.5    NA
#>  6 Afghani~ AFG   1966-01-01  1965   1960 South~ Low i~ FALSE    NA   34.9    NA
#>  7 Afghani~ AFG   1967-01-01  1966   1960 South~ Low i~ FALSE    NA   35.4    NA
#>  8 Afghani~ AFG   1968-01-01  1967   1960 South~ Low i~ FALSE    NA   35.9    NA
#>  9 Afghani~ AFG   1969-01-01  1968   1960 South~ Low i~ FALSE    NA   36.4    NA
#> 10 Afghani~ AFG   1970-01-01  1969   1960 South~ Low i~ FALSE    NA   36.9    NA
#> # ... with 13,166 more rows, and 14 more variables: ODA <dbl>, POP <dbl>,
#> #   L1.PCGDP <dbl>, L10.PCGDP <dbl>, L1.LIFEEX <dbl>, L10.LIFEEX <dbl>,
#> #   L1.ODA <dbl>, L10.ODA <dbl>, G1.PCGDP <dbl>, L10G1.PCGDP <dbl>,
#> #   G1.LIFEEX <dbl>, L10G1.LIFEEX <dbl>, G1.ODA <dbl>, L10G1.ODA <dbl>
…
