Advanced Data Aggregation — collap • collapse
…
## Piped Use --------------------------------------------------
wlddev %>% fgroup_by(country, decade) %>% collapg
#> # A tibble: 1,512 x 12
#>    country decade iso3c date        year region income OECD  PCGDP LIFEEX  GINI
#>    <chr>    <dbl> <fct> <date>     <dbl> <fct>  <fct>  <lgl> <dbl>  <dbl> <dbl>
#>  1 Afghan~   1960 AFG   1961-01-01 1962. South~ Low i~ FALSE   NA    33.4    NA
#>  2 Afghan~   1970 AFG   1967-01-01 1970  South~ Low i~ FALSE   NA    36.7    NA
#>  3 Afghan~   1980 AFG   1976-01-01 1980  South~ Low i~ FALSE   NA    42.0    NA
#>  4 Afghan~   1990 AFG   1987-01-01 1990  South~ Low i~ FALSE   NA    49.7    NA
#>  5 Afghan~   2000 AFG   1996-01-01 2000  South~ Low i~ FALSE  350.   55.6    NA
#>  6 Afghan~   2010 AFG   2007-01-01 2010  South~ Low i~ FALSE  507.   61.1    NA
#>  7 Afghan~   2020 AFG   2016-01-01 2016. South~ Low i~ FALSE  584.   63.5    NA
#>  8 Albania   1960 ALB   1961-01-01 1962. Europ~ Upper~ FALSE   NA    64.3    NA
#>  9 Albania   1970 ALB   1967-01-01 1970  Europ~ Upper~ FALSE   NA    67.1    NA
#> 10 Albania   1980 ALB   1976-01-01 1980  Europ~ Upper~ FALSE 2075.   70.2    NA
#> # ... with 1,502 more rows, and 1 more variable: ODA <dbl>
wlddev %>% fgroup_by(country, decade) %>% collapg(w = ODA)
#> # A tibble: 1,512 x 12
#>    country decade      ODA iso3c date        year region income OECD  PCGDP
#>    <chr>    <dbl>    <dbl> <fct> <date>     <dbl> <fct>  <fct>  <lgl> <dbl>
#>  1 Afghan~   1960  1.37e 9 AFG   1966-01-01 1963. South~ Low i~ FALSE   NA 
#>  2 Afghan~   1970  2.02e 9 AFG   1967-01-01 1970. South~ Low i~ FALSE   NA 
#>  3 Afghan~   1980  1.46e 9 AFG   1978-01-01 1978. South~ Low i~ FALSE   NA 
#>  4 Afghan~   1990  2.24e 9 AFG   1992-01-01 1991. South~ Low i~ FALSE   NA 
#>  5 Afghan~   2000  1.15e10 AFG   2006-01-01 2003. South~ Low i~ FALSE  351.
#>  6 Afghan~   2010  4.77e10 AFG   2012-01-01 2010. South~ Low i~ FALSE  515.
#>  7 Afghan~   2020  1.21e10 AFG   2016-01-01 2016. South~ Low i~ FALSE  584.
#>  8 Albania   1960 NA       ALB   1966-01-01   NA  Europ~ Upper~ NA      NA 
#>  9 Albania   1970 NA       ALB   1975-01-01   NA  Europ~ Upper~ NA      NA 
#> 10 Albania   1980 NA       ALB   1986-01-01   NA  Europ~ Upper~ NA      NA 
#> # ... with 1,502 more rows, and 2 more variables: LIFEEX <dbl>, GINI <dbl>
wlddev %>% fgroup_by(country, decade) %>% collapg(fmedian, flast)
#> # A tibble: 1,512 x 12
#>    country decade iso3c date        year region income OECD  PCGDP LIFEEX  GINI
#>    <chr>    <dbl> <fct> <date>     <dbl> <fct>  <fct>  <lgl> <dbl>  <dbl> <dbl>
#>  1 Afghan~   1960 AFG   1966-01-01 1962. South~ Low i~ FALSE   NA    33.4    NA
#>  2 Afghan~   1970 AFG   1975-01-01 1970  South~ Low i~ FALSE   NA    36.7    NA
#>  3 Afghan~   1980 AFG   1986-01-01 1980  South~ Low i~ FALSE   NA    41.9    NA
#>  4 Afghan~   1990 AFG   1995-01-01 1990  South~ Low i~ FALSE   NA    49.9    NA
#>  5 Afghan~   2000 AFG   2006-01-01 2000  South~ Low i~ FALSE  347.   55.5    NA
#>  6 Afghan~   2010 AFG   2015-01-01 2010  South~ Low i~ FALSE  536.   61.2    NA
#>  7 Afghan~   2020 AFG   2019-01-01 2016. South~ Low i~ FALSE  584.   63.5    NA
#>  8 Albania   1960 ALB   1966-01-01 1962. Europ~ Upper~ FALSE   NA    64.5    NA
#>  9 Albania   1970 ALB   1975-01-01 1970  Europ~ Upper~ FALSE   NA    66.9    NA
#> 10 Albania   1980 ALB   1986-01-01 1980  Europ~ Upper~ FALSE 2072.   70.2    NA
#> # ... with 1,502 more rows, and 1 more variable: ODA <dbl>
wlddev %>% fgroup_by(country, decade) %>%
  collapg(custom = list(fmean = 9:12, fmode = 5:7, flast = 3))
#> # A tibble: 1,512 x 10
#>    country decade flast.date fmode.decade fmode.region fmode.income fmean.PCGDP
#>    <chr>    <dbl> <date>            <dbl> <fct>        <fct>              <dbl>
#>  1 Afghan~   1960 1966-01-01         1960 South Asia   Low income           NA 
#>  2 Afghan~   1970 1975-01-01         1970 South Asia   Low income           NA 
#>  3 Afghan~   1980 1986-01-01         1980 South Asia   Low income           NA 
#>  4 Afghan~   1990 1995-01-01         1990 South Asia   Low income           NA 
#>  5 Afghan~   2000 2006-01-01         2000 South Asia   Low income          350.
#>  6 Afghan~   2010 2015-01-01         2010 South Asia   Low income          507.
#>  7 Afghan~   2020 2019-01-01         2020 South Asia   Low income          584.
#>  8 Albania   1960 1966-01-01         1960 Europe & Ce~ Upper middl~         NA 
#>  9 Albania   1970 1975-01-01         1970 Europe & Ce~ Upper middl~         NA 
#> 10 Albania   1980 1986-01-01         1980 Europe & Ce~ Upper middl~       2075.
#> # ... with 1,502 more rows, and 3 more variables: fmean.LIFEEX <dbl>,
#> #   fmean.GINI <dbl>, fmean.ODA <dbl>
…
