Advanced and Fast Data Transformation — collapse-package • collapse
…
# Same thing using dplyr manipulation verbs
library(dplyr)
wlddev %>% filter(year > 1990) %>% select(region, income, PCGDP:ODA) %>%
  group_by(region,income) %>% fmean       # This is already a lot faster than summarize_all(mean)

#> # A tibble: 23 x 6
#>    region                      income               PCGDP LIFEEX  GINI       ODA
#>    <fct>                       <fct>                <dbl>  <dbl> <dbl>     <dbl>
#>  1 "East Asia & Pacific"       High income         31867.   78.1  32.9    1.04e8
#>  2 "East Asia & Pacific"       Lower middle income  1783.   65.2  36.2    5.07e8
#>  3 "East Asia & Pacific"       Upper middle income  4459.   71.3  41.7    2.29e8
#>  4 "Europe & Central Asia"     High income         40561.   77.3  30.9    3.39e8
#>  5 "Europe & Central Asia"     Low income            661.   66.9  32.1    2.37e8
#>  6 "Europe & Central Asia"     Lower middle income  1851.   69.2  32.7    3.76e8
#>  7 "Europe & Central Asia"     Upper middle income  5231.   71.1  33.9    4.60e8
#>  8 "Latin America & Caribbean~ High income         16427.   74.9  49.1    3.76e7
#>  9 "Latin America & Caribbean~ Low income            737.   59.0  41.1    7.48e8
#> 10 "Latin America & Caribbean~ Lower middle income  1966.   68.6  51.5    5.82e8
#> # ... with 13 more rows
…
