Data Apply — dapply • collapse
…
gmtcars <- group_by(mtcars,cyl,vs,am)
head(dapply(gmtcars, log))               # Still gives a grouped tibble back
#> Warning: NaNs produced
#> # A tibble: 6 × 12
#> # Groups:   cyl, vs, am [4]
#>     mpg   cyl  disp    hp  drat    wt  qsec    vs    am  gear  carb       X
#>   <dbl> <dbl> <dbl> <dbl> <dbl> <dbl> <dbl> <dbl> <dbl> <dbl> <dbl>   <dbl>
#> 1  3.04  1.79  5.08  4.70  1.36 0.963  2.80  -Inf     0  1.39 1.39  NaN    
#> 2  3.04  1.79  5.08  4.70  1.36 1.06   2.83  -Inf     0  1.39 1.39  NaN    
#> 3  3.13  1.39  4.68  4.53  1.35 0.842  2.92     0     0  1.39 0       0.327
#> 4  3.06  1.79  5.55  4.70  1.12 1.17   2.97     0  -Inf  1.10 0     NaN    
#> 5  2.93  2.08  5.89  5.16  1.15 1.24   2.83  -Inf  -Inf  1.10 0.693 NaN    
#> 6  2.90  1.79  5.42  4.65  1.02 1.24   3.01     0  -Inf  1.10 0      -1.23 
dapply(gmtcars, quantile, MARGIN = 1)    # Here it makes sense to keep the groups attribute
#> # A tibble: 32 × 5
#> # Groups:   cyl, vs, am [7]
#>       `0%` `25%` `50%` `75%` `100%`
#>  *   <dbl> <dbl> <dbl> <dbl>  <dbl>
#>  1 -0.763   2.22  4     17.6   160 
#>  2 -0.0864  2.41  4     18.0   160 
#>  3  1       1.29  3.92  19.7   108 
#>  4 -0.654   1     3.15  19.9   258 
#>  5 -0.269   1.5   3.30  17.4   360 
#>  6  0       1     3.23  18.6   225 
#>  7 -0.869   2.25  3.78  14.7   360 
#>  8  0       1.75  3.84  21.1   147.
#>  9 -0.974   1.75  3.96  22.8   141.
#> 10 -1.49    2.83  4     18.5   168.
#> # … with 22 more rows
…
