Fast (Quasi-, Log-) Differences for Time Series and Panel Data — fdiff • collapse
…
## Using dplyr:
library(dplyr)
wlddev %>% group_by(country) %>%
             select(PCGDP,LIFEEX) %>% fdiff(0:1,1:2)       # Adding a first and second difference
#> Adding missing grouping variables: `country`
#> # A tibble: 13,176 × 7
#> # Groups:   country [216]
#>    country     PCGDP D1.PCGDP D2.PCGDP LIFEEX D1.LIFEEX D2.LIFEEX
#>  * <chr>       <dbl>    <dbl>    <dbl>  <dbl>     <dbl>     <dbl>
#>  1 Afghanistan    NA       NA       NA   32.4    NA      NA      
#>  2 Afghanistan    NA       NA       NA   33.0     0.516  NA      
#>  3 Afghanistan    NA       NA       NA   33.5     0.509  -0.00700
#>  4 Afghanistan    NA       NA       NA   34.0     0.5    -0.00900
#>  5 Afghanistan    NA       NA       NA   34.5     0.492  -0.00800
#>  6 Afghanistan    NA       NA       NA   34.9     0.485  -0.00700
#>  7 Afghanistan    NA       NA       NA   35.4     0.482  -0.00300
#>  8 Afghanistan    NA       NA       NA   35.9     0.484   0.00200
#>  9 Afghanistan    NA       NA       NA   36.4     0.489   0.00500
#> 10 Afghanistan    NA       NA       NA   36.9     0.497   0.00800
#> # … with 13,166 more rows
wlddev %>% group_by(country) %>%
             select(year,PCGDP,LIFEEX) %>% D(0:1,1:2,year) # Also using t (safer)
#> Adding missing grouping variables: `country`
#> # A tibble: 13,176 × 8
#> # Groups:   country [216]
#>    country      year PCGDP D1.PCGDP D2.PCGDP LIFEEX D1.LIFEEX D2.LIFEEX
#>  * <chr>       <int> <dbl>    <dbl>    <dbl>  <dbl>     <dbl>     <dbl>
#>  1 Afghanistan  1960    NA       NA       NA   32.4    NA      NA      
#>  2 Afghanistan  1961    NA       NA       NA   33.0     0.516  NA      
#>  3 Afghanistan  1962    NA       NA       NA   33.5     0.509  -0.00700
#>  4 Afghanistan  1963    NA       NA       NA   34.0     0.5    -0.00900
#>  5 Afghanistan  1964    NA       NA       NA   34.5     0.492  -0.00800
#>  6 Afghanistan  1965    NA       NA       NA   34.9     0.485  -0.00700
#>  7 Afghanistan  1966    NA       NA       NA   35.4     0.482  -0.00300
#>  8 Afghanistan  1967    NA       NA       NA   35.9     0.484   0.00200
#>  9 Afghanistan  1968    NA       NA       NA   36.4     0.489   0.00500
#> 10 Afghanistan  1969    NA       NA       NA   36.9     0.497   0.00800
#> # … with 13,166 more rows
wlddev %>% group_by(country) %>%                            # Dropping id's
             select(year,PCGDP,LIFEEX) %>% D(0:1,1:2,year, keep.ids = FALSE)
#> Adding missing grouping variables: `country`
#> # A tibble: 13,176 × 6
#> # Groups:   country [216]
#>    PCGDP D1.PCGDP D2.PCGDP LIFEEX D1.LIFEEX D2.LIFEEX
#>  * <dbl>    <dbl>    <dbl>  <dbl>     <dbl>     <dbl>
#>  1    NA       NA       NA   32.4    NA      NA      
#>  2    NA       NA       NA   33.0     0.516  NA      
#>  3    NA       NA       NA   33.5     0.509  -0.00700
#>  4    NA       NA       NA   34.0     0.5    -0.00900
#>  5    NA       NA       NA   34.5     0.492  -0.00800
#>  6    NA       NA       NA   34.9     0.485  -0.00700
#>  7    NA       NA       NA   35.4     0.482  -0.00300
#>  8    NA       NA       NA   35.9     0.484   0.00200
#>  9    NA       NA       NA   36.4     0.489   0.00500
#> 10    NA       NA       NA   36.9     0.497   0.00800
#> # … with 13,166 more rows
…
