Fast Growth Rates for Time Series and Panel Data — fgrowth • collapse
…
## Using dplyr:
library(dplyr)
wlddev %>% group_by(country) %>%
             select(PCGDP,LIFEEX) %>% fgrowth(0:1)         # Adding growth rates

#> Adding missing grouping variables: `country`
#> Panel-growth rate computed without timevar: Assuming ordered data
#> # A tibble: 12,744 x 5
#> # Groups:   country [216]
#>    country     PCGDP G1.PCGDP LIFEEX G1.LIFEEX
#>  * <chr>       <dbl>    <dbl>  <dbl>     <dbl>
#>  1 Afghanistan    NA       NA   32.3     NA   
#>  2 Afghanistan    NA       NA   32.7      1.39
#>  3 Afghanistan    NA       NA   33.2      1.35
#>  4 Afghanistan    NA       NA   33.6      1.32
#>  5 Afghanistan    NA       NA   34.1      1.30
#>  6 Afghanistan    NA       NA   34.5      1.28
#>  7 Afghanistan    NA       NA   34.9      1.26
#>  8 Afghanistan    NA       NA   35.4      1.24
#>  9 Afghanistan    NA       NA   35.8      1.23
#> 10 Afghanistan    NA       NA   36.2      1.22
#> # ... with 12,734 more rows
wlddev %>% group_by(country) %>%
             select(year,PCGDP,LIFEEX) %>%
             fgrowth(0:1, t = year)                        # Also using t (safer)

#> Adding missing grouping variables: `country`
#> # A tibble: 12,744 x 6
#> # Groups:   country [216]
#>    country      year PCGDP G1.PCGDP LIFEEX G1.LIFEEX
#>  * <chr>       <int> <dbl>    <dbl>  <dbl>     <dbl>
#>  1 Afghanistan  1960    NA       NA   32.3     NA   
#>  2 Afghanistan  1961    NA       NA   32.7      1.39
#>  3 Afghanistan  1962    NA       NA   33.2      1.35
#>  4 Afghanistan  1963    NA       NA   33.6      1.32
#>  5 Afghanistan  1964    NA       NA   34.1      1.30
#>  6 Afghanistan  1965    NA       NA   34.5      1.28
#>  7 Afghanistan  1966    NA       NA   34.9      1.26
#>  8 Afghanistan  1967    NA       NA   35.4      1.24
#>  9 Afghanistan  1968    NA       NA   35.8      1.23
#> 10 Afghanistan  1969    NA       NA   36.2      1.22
#> # ... with 12,734 more rows
…
