Fast Lags and Leads for Time Series and Panel Data — flag • collapse
…
## Using dplyr:
library(dplyr)
wlddev |> group_by(iso3c) |> select(PCGDP,LIFEEX) |> L(0:2)
#> Adding missing grouping variables: `iso3c`
#> # A tibble: 13,176 × 7
#> # Groups:   iso3c [216]
#>    iso3c PCGDP L1.PCGDP L2.PCGDP LIFEEX L1.LIFEEX L2.LIFEEX
#>  * <fct> <dbl>    <dbl>    <dbl>  <dbl>     <dbl>     <dbl>
#>  1 AFG      NA       NA       NA   32.4      NA        NA  
#>  2 AFG      NA       NA       NA   33.0      32.4      NA  
#>  3 AFG      NA       NA       NA   33.5      33.0      32.4
#>  4 AFG      NA       NA       NA   34.0      33.5      33.0
#>  5 AFG      NA       NA       NA   34.5      34.0      33.5
#>  6 AFG      NA       NA       NA   34.9      34.5      34.0
#>  7 AFG      NA       NA       NA   35.4      34.9      34.5
#>  8 AFG      NA       NA       NA   35.9      35.4      34.9
#>  9 AFG      NA       NA       NA   36.4      35.9      35.4
#> 10 AFG      NA       NA       NA   36.9      36.4      35.9
#> # … with 13,166 more rows
wlddev |> group_by(iso3c) |> select(year,PCGDP,LIFEEX) |> L(0:2,year) # Also using t (safer)
#> Adding missing grouping variables: `iso3c`
#> # A tibble: 13,176 × 8
#> # Groups:   iso3c [216]
#>    iso3c  year PCGDP L1.PCGDP L2.PCGDP LIFEEX L1.LIFEEX L2.LIFEEX
#>  * <fct> <int> <dbl>    <dbl>    <dbl>  <dbl>     <dbl>     <dbl>
#>  1 AFG    1960    NA       NA       NA   32.4      NA        NA  
#>  2 AFG    1961    NA       NA       NA   33.0      32.4      NA  
#>  3 AFG    1962    NA       NA       NA   33.5      33.0      32.4
#>  4 AFG    1963    NA       NA       NA   34.0      33.5      33.0
#>  5 AFG    1964    NA       NA       NA   34.5      34.0      33.5
#>  6 AFG    1965    NA       NA       NA   34.9      34.5      34.0
#>  7 AFG    1966    NA       NA       NA   35.4      34.9      34.5
#>  8 AFG    1967    NA       NA       NA   35.9      35.4      34.9
#>  9 AFG    1968    NA       NA       NA   36.4      35.9      35.4
#> 10 AFG    1969    NA       NA       NA   36.9      36.4      35.9
#> # … with 13,166 more rows
…
