Fast (Grouped, Weighted) Mean for Matrix-Like Objects — fmean • collapse
…
#> # A tibble: 7 x 11
#>     cyl    vs    am sum.hp   mpg  disp  drat    wt  qsec  gear  carb
#>   <dbl> <dbl> <dbl>  <dbl> <dbl> <dbl> <dbl> <dbl> <dbl> <dbl> <dbl>
#> 1     4     0     1     91  26   120.   4.43  2.14  16.7  5     2   
#> 2     4     1     0    254  22.7 134.   3.78  2.90  21.1  3.62  1.62
#> 3     4     1     1    564  27.7  93.9  4.08  2.07  18.5  4.20  1.49
#> 4     6     0     1    395  20.4 153.   3.78  2.76  16.2  4.44  4.89
#> 5     6     1     0    461  19.1 202.   3.46  3.39  19.2  3.53  2.60
#> 6     8     0     0   2330  14.8 363.   3.14  4.16  17.1  3     3.21
#> 7     8     0     1    599  15.4 323.   3.84  3.39  14.6  5     6.24
mtcars %>% group_by(cyl,vs,am) %>% fmean(hp, "-")  # Weighted Transform

#> # A tibble: 32 x 11
#> # Groups:   cyl, vs, am [7]
#>      cyl    vs    am    hp     mpg   disp     drat      wt    qsec   gear   carb
#>  * <dbl> <dbl> <dbl> <dbl>   <dbl>  <dbl>    <dbl>   <dbl>   <dbl>  <dbl>  <dbl>
#>  1     6     0     1   110  0.576    6.65  0.124   -0.137   0.269  -0.443 -0.886
#>  2     6     0     1   110  0.576    6.65  0.124    0.118   0.829  -0.443 -0.886
#>  3     4     1     1    93 -4.88    14.1  -0.230    0.253   0.0696 -0.200 -0.486
#>  4     6     1     0   110  2.30    55.8  -0.375   -0.176   0.271  -0.534 -1.60 
#>  5     8     0     0   175  3.87    -3.11  0.00691 -0.719  -0.0649  0     -1.21 
#>  6     6     1     0   105 -1.00    22.8  -0.695    0.0691  1.05   -0.534 -1.60 
#>  7     8     0     0   245 -0.529   -3.11  0.0669  -0.589  -1.24    0      0.790
#>  8     4     1     0    62  1.71    12.4  -0.0898   0.292  -1.09    0.382  0.382
#>  9     4     1     0    95  0.106    6.46  0.140    0.252   1.81    0.382  0.382
#> 10     6     1     0   123  0.0991 -34.6   0.465    0.0491 -0.869   0.466  1.40 
#> # ... with 22 more rows
mtcars %>% group_by(cyl,vs,am) %>%
           select(mpg,hp) %>% fmean(hp, "-")       # Only mpg

#> Adding missing grouping variables: `cyl`, `vs`, `am`
#> # A tibble: 32 x 5
#> # Groups:   cyl, vs, am [7]
#>      cyl    vs    am    hp     mpg
#>  * <dbl> <dbl> <dbl> <dbl>   <dbl>
#>  1     6     0     1   110  0.576 
#>  2     6     0     1   110  0.576 
#>  3     4     1     1    93 -4.88  
#>  4     6     1     0   110  2.30  
#>  5     8     0     0   175  3.87  
#>  6     6     1     0   105 -1.00  
#>  7     8     0     0   245 -0.529 
#>  8     4     1     0    62  1.71  
#>  9     4     1     0    95  0.106 
#> 10     6     1     0   123  0.0991
#> # ... with 22 more rows
…
