Fast (Grouped, Weighted) Median Value for Matrix-Like Objects — fmedian • collapse
…
library(dplyr)
# grouped_df method
mtcars %>% group_by(cyl,vs,am) %>% fmedian()
#> # A tibble: 7 × 12
#>     cyl    vs    am   mpg  disp    hp  drat    wt  qsec  gear  carb       X
#>   <dbl> <dbl> <dbl> <dbl> <dbl> <dbl> <dbl> <dbl> <dbl> <dbl> <dbl>   <dbl>
#> 1     4     0     1  26    120.   91   4.43  2.14  16.7   5     2   -0.554 
#> 2     4     1     0  22.8  141.   95   3.7   3.15  20.0   4     2   -0.904 
#> 3     4     1     1  30.4   79    66   4.08  1.94  18.6   4     1    0.780 
#> 4     6     0     1  21    160   110   3.9   2.77  16.5   4     4   -0.0864
#> 5     6     1     0  18.6  196.  116.  3.5   3.44  19.2   3.5   2.5 -0.690 
#> 6     8     0     0  15.2  355   180   3.08  3.81  17.4   3     3   -0.171 
#> 7     8     0     1  15.4  326   300.  3.88  3.37  14.6   5     6   -1.19  
mtcars %>% group_by(cyl,vs,am) %>% fmedian(hp)             # Weighted
#> # A tibble: 7 × 12
#>     cyl    vs    am sum.hp   mpg  disp  drat    wt  qsec  gear  carb       X
#>   <dbl> <dbl> <dbl>  <dbl> <dbl> <dbl> <dbl> <dbl> <dbl> <dbl> <dbl>   <dbl>
#> 1     4     0     1     91  26   120.   4.43  2.14  16.7     5     2 -0.554 
#> 2     4     1     0    254  22.8 141.   3.7   3.15  20.0     4     2 -0.904 
#> 3     4     1     1    564  30.4  95.1  4.08  1.94  18.6     4     1  0.780 
#> 4     6     0     1    395  21   160    3.9   2.77  16.5     4     4 -0.0864
#> 5     6     1     0    461  19.2 168.   3.92  3.44  18.9     4     4 -0.726 
#> 6     8     0     0   2330  15.2 360    3.08  3.84  17.4     3     3 -0.0733
#> 7     8     0     1    599  15   301    3.54  3.57  14.6     5     8 -2.15  
mtcars %>% fgroup_by(cyl,vs,am) %>% fmedian()              # Faster grouping!
#>   cyl vs am   mpg  disp    hp  drat    wt  qsec gear carb           X
#> 1   4  0  1 26.00 120.3  91.0 4.430 2.140 16.70  5.0  2.0 -0.55381411
#> 2   4  1  0 22.80 140.8  95.0 3.700 3.150 20.01  4.0  2.0 -0.90357957
#> 3   4  1  1 30.40  79.0  66.0 4.080 1.935 18.61  4.0  1.0  0.78018236
#> 4   6  0  1 21.00 160.0 110.0 3.900 2.770 16.46  4.0  4.0 -0.08641398
#> 5   6  1  0 18.65 196.3 116.5 3.500 3.440 19.17  3.5  2.5 -0.68968621
#> 6   8  0  0 15.20 355.0 180.0 3.075 3.810 17.35  3.0  3.0 -0.17101314
#> 7   8  0  1 15.40 326.0 299.5 3.880 3.370 14.55  5.0  6.0 -1.18932646
mtcars %>% fgroup_by(cyl,vs,am) %>% fmedian(TRA = "-")     # De-median
#>                   cyl vs am   mpg disp    hp   drat     wt  qsec gear carb
#> Mazda RX4           6  0  1  0.00  0.0   0.0  0.000 -0.150  0.00  0.0  0.0
#> Mazda RX4 Wag       6  0  1  0.00  0.0   0.0  0.000  0.105  0.56  0.0  0.0
#> Datsun 710          4  1  1 -7.60 29.0  27.0 -0.230  0.385  0.00  0.0  0.0
#> Hornet 4 Drive      6  1  0  2.75 61.7  -6.5 -0.420 -0.225  0.27 -0.5 -1.5
#> Hornet Sportabout   8  0  0  3.50  5.0  -5.0  0.075 -0.370 -0.33  0.0 -1.0
#> Valiant             6  1  0 -0.55 28.7 -11.5 -0.740  0.020  1.05 -0.5 -1.5
#> Duster 360          8  0  0 -0.90  5.0  65.0  0.135 -0.240 -1.51  0.0  1.0
#> Merc 240D           4  1  0  1.60  5.9 -33.0 -0.010  0.040 -0.01  0.0  0.0
#>                             X
#> Mazda RX4         -0.67630652
#> Mazda RX4 Wag      0.00000000
#> Datsun 710         0.60709771
#> Hornet 4 Drive     0.03607027
#> Hornet Sportabout -0.09769450
#> Valiant            0.98133678
#> Duster 360        -0.69795583
#> Merc 240D          1.12870677
#>  [ reached 'max' / getOption("max.print") -- omitted 24 rows ]
…
