Fast (Grouped) Maxima and Minima for Matrix-Like Objects — fmin-fmax • collapse
…
## method for grouped data frames - created with dplyr::group_by or fgroup_by
library(dplyr)
mtcars %>% group_by(cyl,vs,am) %>% fmax()
#> # A tibble: 7 × 11
#>     cyl    vs    am   mpg  disp    hp  drat    wt  qsec  gear  carb
#>   <dbl> <dbl> <dbl> <dbl> <dbl> <dbl> <dbl> <dbl> <dbl> <dbl> <dbl>
#> 1     4     0     1  26    120.    91  4.43  2.14  16.7     5     2
#> 2     4     1     0  24.4  147.    97  3.92  3.19  22.9     4     2
#> 3     4     1     1  33.9  121    113  4.93  2.78  19.9     5     2
#> 4     6     0     1  21    160    175  3.9   2.88  17.0     5     6
#> 5     6     1     0  21.4  258    123  3.92  3.46  20.2     4     4
#> 6     8     0     0  19.2  472    245  3.73  5.42  18       3     4
#> 7     8     0     1  15.8  351    335  4.22  3.57  14.6     5     8
mtcars %>% group_by(cyl,vs,am) %>% fmax("%")
#> # A tibble: 32 × 11
#> # Groups:   cyl, vs, am [7]
#>      cyl    vs    am   mpg  disp    hp  drat    wt  qsec  gear  carb
#>  * <dbl> <dbl> <dbl> <dbl> <dbl> <dbl> <dbl> <dbl> <dbl> <dbl> <dbl>
#>  1     6     0     1 100   100    62.9 100    91.1  96.7    80  66.7
#>  2     6     0     1 100   100    62.9 100   100   100      80  66.7
#>  3     4     1     1  67.3  89.3  82.3  78.1  83.5  93.5    80  50  
#>  4     6     1     0 100   100    89.4  78.6  92.9  96.1    75  25  
#>  5     8     0     0  97.4  76.3  71.4  84.5  63.4  94.6   100  50  
#>  6     6     1     0  84.6  87.2  85.4  70.4 100   100      75  25  
#>  7     8     0     0  74.5  76.3 100    86.1  65.8  88     100 100  
#>  8     4     1     0 100   100    63.9  94.1 100    87.3   100 100  
#>  9     4     1     0  93.4  96.0  97.9 100    98.7 100     100 100  
#> 10     6     1     0  89.7  65.0 100   100    99.4  90.5   100 100  
#> # ℹ 22 more rows
…
