Fast (Grouped) Distinct Value Count for Matrix-Like Objects — fNdistinct • collapse
…
#> # A tibble: 5 x 6
#>   Month Ozone Solar.R  Wind  Temp   Day
#>   <int> <int>   <int> <int> <int> <int>
#> 1     5    21      27    18    18    31
#> 2     6     9      28    16    19    30
#> 3     7    24      29    17    14    31
#> 4     8    24      27    18    19    31
#> 5     9    21      27    19    20    30
wlddev %>% group_by(country) %>%
             select(PCGDP,LIFEEX,GINI,ODA) %>% fNdistinct

#> Adding missing grouping variables: `country`
#> # A tibble: 216 x 5
#>    country             PCGDP LIFEEX  GINI   ODA
#>    <chr>               <int>  <int> <int> <int>
#>  1 Afghanistan            16     57     0    58
#>  2 Albania                38     56     5    30
#>  3 Algeria                58     57     3    58
#>  4 American Samoa         16      0     0     0
#>  5 Andorra                48      0     0     0
#>  6 Angola                 38     57     2    55
#>  7 Antigua and Barbuda    41     57     0    45
#>  8 Argentina              58     57    27    58
#>  9 Armenia                28     56    17    27
#> 10 Aruba                  32     57     0    20
#> # ... with 206 more rows
…
