Fast (Grouped, Weighted) N'th Element/Quantile for Matrix-Like Objects — fnth-fmedian • collapse
…
library(dplyr)
## grouped_df method
mtcars %>% group_by(cyl,vs,am) %>% fnth(0.75)
#> # A tibble: 7 × 11
#>     cyl    vs    am   mpg  disp    hp  drat    wt  qsec  gear  carb
#>   <dbl> <dbl> <dbl> <dbl> <dbl> <dbl> <dbl> <dbl> <dbl> <dbl> <dbl>
#> 1     4     0     1  26    120.   91   4.43  2.14  16.7   5       2
#> 2     4     1     0  23.6  144.   96   3.81  3.17  21.5   4       2
#> 3     4     1     1  31.4  102.  101   4.16  2.26  19.2   4       2
#> 4     6     0     1  21    160   142.  3.9   2.82  16.7   4.5     5
#> 5     6     1     0  19.8  233.  123   3.92  3.44  19.6   4       4
#> 6     8     0     0  16.6  410   219.  3.16  4.36  17.7   3       4
#> 7     8     0     1  15.6  338.  317.  4.05  3.47  14.6   5       7
mtcars %>% group_by(cyl,vs,am) %>% fnth(0.75, hp)           # Weighted
#> # A tibble: 7 × 11
#>     cyl    vs    am sum.hp   mpg  disp  drat    wt  qsec  gear  carb
#>   <dbl> <dbl> <dbl>  <dbl> <dbl> <dbl> <dbl> <dbl> <dbl> <dbl> <dbl>
#> 1     4     0     1     91  26    120.  4.43  2.14  16.7  5     2   
#> 2     4     1     0    254  22.7  141.  3.85  3.15  21.9  4     2   
#> 3     4     1     1    564  30.4  110.  4.08  2.39  18.9  4.22  2   
#> 4     6     0     1    395  21    160   3.9   2.79  16.6  4.87  5.74
#> 5     6     1     0    461  19.6  230.  3.92  3.44  19.5  4     4   
#> 6     8     0     0   2330  16.3  426.  3.21  4.80  17.7  3     4   
#> 7     8     0     1    599  15.5  330.  3.94  3.52  14.6  5     7.53
mtcars %>% fgroup_by(cyl,vs,am) %>% fnth(0.75)              # Faster grouping!
#>   cyl vs am    mpg   disp     hp  drat     wt   qsec gear carb
#> 1   4  0  1 26.000 120.30  91.00 4.430 2.1400 16.700  5.0    2
#> 2   4  1  0 23.600 143.75  96.00 3.810 3.1700 21.455  4.0    2
#> 3   4  1  1 31.400 101.55 101.00 4.165 2.2600 19.185  4.0    2
#> 4   6  0  1 21.000 160.00 142.50 3.900 2.8225 16.740  4.5    5
#> 5   6  1  0 19.750 233.25 123.00 3.920 3.4450 19.635  4.0    4
#> 6   8  0  0 16.625 410.00 218.75 3.165 4.3650 17.655  3.0    4
#>  [ reached 'max' / getOption("max.print") -- omitted 1 rows ]
…
# grouped_df method
mtcars %>% group_by(cyl,vs,am) %>% fmedian()
#> # A tibble: 7 × 11
#>     cyl    vs    am   mpg  disp    hp  drat    wt  qsec  gear  carb
#>   <dbl> <dbl> <dbl> <dbl> <dbl> <dbl> <dbl> <dbl> <dbl> <dbl> <dbl>
#> 1     4     0     1  26    120.   91   4.43  2.14  16.7   5     2  
#> 2     4     1     0  22.8  141.   95   3.7   3.15  20.0   4     2  
#> 3     4     1     1  30.4   79    66   4.08  1.94  18.6   4     1  
#> 4     6     0     1  21    160   110   3.9   2.77  16.5   4     4  
#> 5     6     1     0  18.6  196.  116.  3.5   3.44  19.2   3.5   2.5
#> 6     8     0     0  15.2  355   180   3.08  3.81  17.4   3     3  
#> 7     8     0     1  15.4  326   300.  3.88  3.37  14.6   5     6  
mtcars %>% group_by(cyl,vs,am) %>% fmedian(hp)             # Weighted
#> # A tibble: 7 × 11
#>     cyl    vs    am sum.hp   mpg  disp  drat    wt  qsec  gear  carb
#>   <dbl> <dbl> <dbl>  <dbl> <dbl> <dbl> <dbl> <dbl> <dbl> <dbl> <dbl>
#> 1     4     0     1     91  26   120.   4.43  2.14  16.7     5     2
#> 2     4     1     0    254  22.8 141.   3.7   3.15  20.0     4     2
#> 3     4     1     1    564  30.4  95.1  4.08  1.94  18.6     4     1
#> 4     6     0     1    395  21   160    3.9   2.77  16.5     4     4
#> 5     6     1     0    461  19.2 168.   3.92  3.44  18.9     4     4
#> 6     8     0     0   2330  15.2 360    3.08  3.84  17.4     3     3
#> 7     8     0     1    599  15   301    3.54  3.57  14.6     5     8
mtcars %>% fgroup_by(cyl,vs,am) %>% fmedian()              # Faster grouping!
#>   cyl vs am   mpg  disp    hp  drat    wt  qsec gear carb
#> 1   4  0  1 26.00 120.3  91.0 4.430 2.140 16.70  5.0  2.0
#> 2   4  1  0 22.80 140.8  95.0 3.700 3.150 20.01  4.0  2.0
#> 3   4  1  1 30.40  79.0  66.0 4.080 1.935 18.61  4.0  1.0
#> 4   6  0  1 21.00 160.0 110.0 3.900 2.770 16.46  4.0  4.0
#> 5   6  1  0 18.65 196.3 116.5 3.500 3.440 19.17  3.5  2.5
#> 6   8  0  0 15.20 355.0 180.0 3.075 3.810 17.35  3.0  3.0
#>  [ reached 'max' / getOption("max.print") -- omitted 1 rows ]
…
