Fast (Grouped, Weighted) N'th Element/Quantile for Matrix-Like Objects — fnth • collapse
…
#> 6     8     0     0   2330  16.4  440   3.21  5.25  17.8     3     4
#> 7     8     0     1    599  15.8  351   4.22  3.57  14.6     5     8
mtcars %>% fgroup_by(cyl,vs,am) %>% fnth(0.75)              # Faster grouping!
#> # A tibble: 7 x 11
#>     cyl    vs    am   mpg  disp    hp  drat    wt  qsec  gear  carb
#>   <dbl> <dbl> <dbl> <dbl> <dbl> <dbl> <dbl> <dbl> <dbl> <dbl> <dbl>
#> 1     4     0     1  26   120.    91   4.43  2.14  16.7     5     2
#> 2     4     1     0  22.8 141.    95   3.7   3.15  20.0     4     2
#> 3     4     1     1  30.4  95.1   93   4.11  2.2   18.9     4     2
#> 4     6     0     1  21   160    110   3.9   2.77  16.5     4     4
#> 5     6     1     0  20.3 242.   123   3.92  3.45  19.8     4     4
#> 6     8     0     0  16.8 420    222.  3.18  4.66  17.7     3     4
#> 7     8     0     1  15.4 326    300.  3.88  3.37  14.6     5     6
mtcars %>% fgroup_by(cyl,vs,am) %>% fnth(0.75, TRA = "/")   # Divide by third quartile
#> # A tibble: 32 x 11
#>      cyl    vs    am   mpg  disp    hp  drat    wt  qsec  gear  carb
#>  * <dbl> <dbl> <dbl> <dbl> <dbl> <dbl> <dbl> <dbl> <dbl> <dbl> <dbl>
#>  1     6     0     1 1     1     1     1     0.946 1      1     1   
#>  2     6     0     1 1     1     1     1     1.04  1.03   1     1   
#>  3     4     1     1 0.75  1.14  1     0.937 1.05  0.985  1     0.5 
#>  4     6     1     0 1.05  1.07  0.894 0.786 0.932 0.980  0.75  0.25
#>  5     8     0     0 1.11  0.857 0.787 0.991 0.738 0.961  1     0.5 
#>  6     6     1     0 0.892 0.932 0.854 0.704 1.00  1.02   0.75  0.25
#>  7     8     0     0 0.849 0.857 1.10  1.01  0.766 0.894  1     1   
#>  8     4     1     0 1.07  1.04  0.653 0.997 1.01  1.00   1     1   
#>  9     4     1     0 1     1     1     1.06  1     1.14   1     1   
#> 10     6     1     0 0.946 0.694 1     1     0.997 0.923  1     1   
#> # ... with 22 more rows
mtcars %>% fgroup_by(cyl,vs,am) %>% fselect(mpg, hp) %>%    # Faster selecting
      fnth(0.75, hp, "/")  # Divide mpg by its third weighted group-quartile, using hp as weights
#> # A tibble: 32 x 2
#>       hp   mpg
#>  * <dbl> <dbl>
#>  1   110 1    
#>  2   110 1    
#>  3    93 0.75 
#>  4   110 1.11 
#>  5   175 1.14 
#>  6   105 0.943
#>  7   245 0.872
#>  8    62 1.07 
#>  9    95 1    
#> 10   123 1    
#> # ... with 22 more rows
…
