Fast (Grouped, Weighted) Product for Matrix-Like Objects — fprod • collapse
…
## method for grouped data frames - created with dplyr::group_by or fgroup_by
library(dplyr)
mtcars %>% group_by(cyl,vs,am) %>% fprod(hp)   # Weighted grouped product
#> # A tibble: 7 × 11
#>     cyl    vs    am prod.hp     mpg    disp    drat      wt    qsec    gear
#>   <dbl> <dbl> <dbl>   <dbl>   <dbl>   <dbl>   <dbl>   <dbl>   <dbl>   <dbl>
#> 1     4     0     1 9.1 e 1 2.37e 3 1.09e 4 4.03e 2 1.95e 2 1.52e 3 4.55e 2
#> 2     4     1     0 5.71e 5 6.83e 9 1.42e12 3.06e 7 1.42e 7 5.24e 9 2.74e 7
#> 3     4     1     1 1.69e13 2.28e23 7.01e26 3.48e17 2.08e15 1.34e22 3.45e17
#> 4     6     0     1 2.12e 6 1.84e10 7.86e12 1.17e 8 4.42e 7 9.19e 9 1.69e 8
#> 5     6     1     0 1.75e 8 2.31e13 2.85e17 2.28e10 2.30e10 2.38e13 2.52e10
#> 6     8     0     0 2.45e27 2.70e41 8.60e57 2.03e33 4.68e34 1.56e42 1.30e33
#> 7     8     0     1 8.84e 4 2.10e 7 9.34e 9 1.32e 6 1.00e 6 1.87e 7 2.21e 6
#> # … with 1 more variable: carb <dbl>
mtcars %>% fgroup_by(cyl,vs,am) %>% fprod(hp)  # Equivalent and faster
#>   cyl vs am      prod.hp          mpg         disp         drat           wt
#> 1   4  0  1 9.100000e+01 2.366000e+03 1.094730e+04 4.031300e+02 1.947400e+02
#> 2   4  1  0 5.713300e+05 6.833610e+09 1.417303e+12 3.057744e+07 1.415159e+07
#> 3   4  1  1 1.686524e+13 2.280319e+23 7.013736e+26 3.484304e+17 2.076235e+15
#> 4   6  0  1 2.117500e+06 1.839620e+10 7.860160e+12 1.165900e+08 4.418169e+07
#> 5   6  1  0 1.747400e+08 2.313161e+13 2.849328e+17 2.282570e+10 2.300203e+10
#> 6   8  0  0 2.445279e+27 2.697440e+41 8.596021e+57 2.028756e+33 4.682457e+34
#>           qsec         gear         carb
#> 1 1.519700e+03 4.550000e+02 1.820000e+02
#> 2 5.235999e+09 2.742384e+07 2.285320e+06
#> 3 1.338013e+22 3.454001e+17 1.349219e+14
#> 4 9.194847e+09 1.694000e+08 2.032800e+08
#> 5 2.375650e+13 2.516255e+10 2.795839e+09
#> 6 1.555290e+42 1.299522e+33 1.081713e+33
#>  [ reached 'max' / getOption("max.print") -- omitted 1 rows ]
…
