Fast (Grouped, Weighted) Scaling and Centering of Matrix-like Objects — fscale • collapse
…
#>   iso3c STD.PCGDP STD.LIFEEX STD.GINI    STD.ODA
#> 1   AFG        NA  -1.569523       NA -0.6868124
#> 2   AFG        NA  -1.526868       NA -0.6333788
#> 3   AFG        NA  -1.484877       NA -0.6866147
#> 4   AFG        NA  -1.443264       NA -0.6319858
#> 5   AFG        NA  -1.401936       NA -0.6023144
#> 6   AFG        NA  -1.360703       NA -0.5718611

# Using dplyr
library(dplyr)
wlddev %>% group_by(iso3c) %>% select(PCGDP,LIFEEX) %>% STD

#> Adding missing grouping variables: `iso3c`
#> # A tibble: 12,744 x 3
#> # Groups:   iso3c [216]
#>    iso3c STD.PCGDP STD.LIFEEX
#>  * <fct>     <dbl>      <dbl>
#>  1 AFG          NA      -1.55
#>  2 AFG          NA      -1.51
#>  3 AFG          NA      -1.46
#>  4 AFG          NA      -1.42
#>  5 AFG          NA      -1.38
#>  6 AFG          NA      -1.33
#>  7 AFG          NA      -1.29
#>  8 AFG          NA      -1.25
#>  9 AFG          NA      -1.20
#> 10 AFG          NA      -1.16
#> # ... with 12,734 more rows
wlddev %>% group_by(iso3c) %>% select(PCGDP,LIFEEX) %>% STD(weights) # weighted standardizing

#> Adding missing grouping variables: `iso3c`
#> # A tibble: 12,744 x 3
#> # Groups:   iso3c [216]
#>    iso3c STD.PCGDP STD.LIFEEX
#>  * <fct>     <dbl>      <dbl>
#>  1 AFG          NA      -1.57
#>  2 AFG          NA      -1.53
#>  3 AFG          NA      -1.48
#>  4 AFG          NA      -1.44
#>  5 AFG          NA      -1.40
#>  6 AFG          NA      -1.36
#>  7 AFG          NA      -1.32
#>  8 AFG          NA      -1.28
#>  9 AFG          NA      -1.24
#> 10 AFG          NA      -1.20
#> # ... with 12,734 more rows
wlddev %>% group_by(iso3c) %>% select(PCGDP,LIFEEX,ODA) %>% STD(ODA) # weighting by ODA ->

#> Adding missing grouping variables: `iso3c`
#> # A tibble: 12,744 x 4
#> # Groups:   iso3c [216]
#>    iso3c       ODA STD.PCGDP STD.LIFEEX
#>  * <fct>     <dbl>     <dbl>      <dbl>
#>  1 AFG   114440000        NA      -4.15
#>  2 AFG   233350000        NA      -4.08
#>  3 AFG   114880000        NA      -4.02
#>  4 AFG   236450000        NA      -3.95
#>  5 AFG   302480000        NA      -3.88
#>  6 AFG   370250000        NA      -3.81
#>  7 AFG   338270000        NA      -3.74
#>  8 AFG   259230000        NA      -3.68
#>  9 AFG   182000000        NA      -3.61
#> 10 AFG   162680000        NA      -3.54
#> # ... with 12,734 more rows
…
