Fast (Grouped, Weighted) Variance and Standard Deviation for Matrix-Like Objects — fvar, fsd • collapse
…
#> # A tibble: 7 x 11
#>     cyl    vs    am sum.hp   mpg  disp  drat     wt   qsec  gear  carb
#>   <dbl> <dbl> <dbl>  <dbl> <dbl> <dbl> <dbl>  <dbl>  <dbl> <dbl> <dbl>
#> 1     4     0     1     91 0      0    0     0      0      0     0    
#> 2     4     1     0    254 1.12  11.4  0.109 0.342  1.40   0.487 0.487
#> 3     4     1     1    564 4.56  17.9  0.312 0.447  0.934  0.401 0.500
#> 4     6     0     1    395 0.647  7.46 0.139 0.0959 0.651  0.497 0.995
#> 5     6     1     0    461 1.40  38.8  0.509 0.0989 0.701  0.499 1.50 
#> 6     8     0     0   2330 2.66  68.8  0.233 0.756  0.830  0     0.851
#> 7     8     0     1    599 0.398 24.8  0.338 0.199  0.0497 0     1.99 
mtcars %>% group_by(cyl,vs,am) %>% fsd(hp, "/") # Weighted scaling transformation

#> # A tibble: 32 x 11
#> # Groups:   cyl, vs, am [7]
#>      cyl    vs    am    hp   mpg  disp  drat    wt  qsec   gear  carb
#>  * <dbl> <dbl> <dbl> <dbl> <dbl> <dbl> <dbl> <dbl> <dbl>  <dbl> <dbl>
#>  1     6     0     1   110 32.5  21.4  28.0  27.3   25.3   8.04 4.02 
#>  2     6     0     1   110 32.5  21.4  28.0  30.0   26.1   8.04 4.02 
#>  3     4     1     1    93  5.00  6.05 12.3   5.19  19.9   9.98 2.00 
#>  4     6     1     0   110 15.3   6.65  6.05 32.5   27.7   6.01 0.667
#>  5     8     0     0   175  7.02  5.23 13.5   4.55  20.5 Inf    2.35 
#>  6     6     1     0   105 13.0   5.80  5.42 35.0   28.9   6.01 0.667
#>  7     8     0     0   245  5.37  5.23 13.8   4.73  19.1 Inf    4.70 
#>  8     4     1     0    62 21.7  12.8  34.0   9.34  14.3   8.22 4.11 
#>  9     4     1     0    95 20.3  12.3  36.1   9.22  16.3   8.22 4.11 
#> 10     6     1     0   123 13.8   4.32  7.69 34.8   26.1   8.01 2.67 
#> # ... with 22 more rows
…
