Fast Grouping / collapse Grouping Objects — GRP • collapse
…
#> collapse grouping object of length 32 with 7 ordered groups
#> 
#> Call: GRP.grouped_df(X = .), X is unsorted
#> 
#> Distribution of group sizes: 
#>    Min. 1st Qu.  Median    Mean 3rd Qu.    Max. 
#>   1.000   2.500   3.000   4.571   5.500  12.000 
#> 
#> Groups with sizes: 
#> 4.0.1 4.1.0 4.1.1 6.0.1 6.1.0 8.0.0 8.0.1 
#>     1     3     7     3     4    12     2 
mtcars %>% group_by(cyl,vs,am) %>% fmean()  # Grouped mean using dplyr grouping

#> # A tibble: 7 x 11
#>     cyl    vs    am   mpg  disp    hp  drat    wt  qsec  gear  carb
#>   <dbl> <dbl> <dbl> <dbl> <dbl> <dbl> <dbl> <dbl> <dbl> <dbl> <dbl>
#> 1     4     0     1  26   120.   91    4.43  2.14  16.7  5     2   
#> 2     4     1     0  22.9 136.   84.7  3.77  2.94  21.0  3.67  1.67
#> 3     4     1     1  28.4  89.8  80.6  4.15  2.03  18.7  4.14  1.43
#> 4     6     0     1  20.6 155   132.   3.81  2.76  16.3  4.33  4.67
#> 5     6     1     0  19.1 205.  115.   3.42  3.39  19.2  3.5   2.5 
#> 6     8     0     0  15.1 358.  194.   3.12  4.10  17.1  3     3.08
#> 7     8     0     1  15.4 326   300.   3.88  3.37  14.6  5     6   
mtcars %>% fgroup_by(cyl,vs,am) %>% fmean() # Faster alternative with collapse grouping

#>   cyl vs am      mpg     disp        hp     drat       wt     qsec     gear
#> 1   4  0  1 26.00000 120.3000  91.00000 4.430000 2.140000 16.70000 5.000000
#> 2   4  1  0 22.90000 135.8667  84.66667 3.770000 2.935000 20.97000 3.666667
#> 3   4  1  1 28.37143  89.8000  80.57143 4.148571 2.028286 18.70000 4.142857
#> 4   6  0  1 20.56667 155.0000 131.66667 3.806667 2.755000 16.32667 4.333333
#> 5   6  1  0 19.12500 204.5500 115.25000 3.420000 3.388750 19.21500 3.500000
#> 6   8  0  0 15.05000 357.6167 194.16667 3.120833 4.104083 17.14250 3.000000
#> 7   8  0  1 15.40000 326.0000 299.50000 3.880000 3.370000 14.55000 5.000000
#>       carb
#> 1 2.000000
#> 2 1.666667
#> 3 1.428571
#> 4 4.666667
#> 5 2.500000
#> 6 3.083333
#> 7 6.000000

mtcars %>% fgroup_by(cyl,vs,am)            # Print method for grouped data frame

#>                    mpg cyl  disp  hp drat    wt  qsec vs am gear carb
#> Mazda RX4         21.0   6 160.0 110 3.90 2.620 16.46  0  1    4    4
#> Mazda RX4 Wag     21.0   6 160.0 110 3.90 2.875 17.02  0  1    4    4
#> Datsun 710        22.8   4 108.0  93 3.85 2.320 18.61  1  1    4    1
#> Hornet 4 Drive    21.4   6 258.0 110 3.08 3.215 19.44  1  0    3    1
#> Hornet Sportabout 18.7   8 360.0 175 3.15 3.440 17.02  0  0    3    2
#> Valiant           18.1   6 225.0 105 2.76 3.460 20.22  1  0    3    1
#> Duster 360        14.3   8 360.0 245 3.21 3.570 15.84  0  0    3    4
#> Merc 240D         24.4   4 146.7  62 3.69 3.190 20.00  1  0    4    2
#> Merc 230          22.8   4 140.8  95 3.92 3.150 22.90  1  0    4    2
#>  [ reached 'max' / getOption("max.print") -- omitted 23 rows ]
…
