Fast Indexed Time Series and Panels — indexing • collapse
…
# Using a random forest model without fixed effects
# ranger does not support these kinds of formulas, thus we need some preprocessing...
wldi %>% fselect(PCGDP, LIFEEX) %>%
  fgrowth(5, power = 1/5) %>% ftransform(LIFEEX_L5 = L(LIFEEX, 5)) %>%
  unindex() %>% na_omit() %>% ranger::ranger(formula = PCGDP ~.)
}
# Indexing other data frame based classes --------------------------------------

library(tibble)
wlditbl <- qTBL(wlddev) %>% findex_by(iso3c, year)
wlditbl[,2] # Works like a tibble...
#> # A tibble: 13,176 × 1
#>    iso3c
#>  * <fct>
#>  1 AFG  
#>  2 AFG  
#>  3 AFG  
#>  4 AFG  
#>  5 AFG  
#>  6 AFG  
#>  7 AFG  
#>  8 AFG  
#>  9 AFG  
#> 10 AFG  
#> # … with 13,166 more rows
…
#> attr(,"label")
#> [1] Country Code
#> 216 Levels: ABW AFG AGO ALB AND ARE ARG ARM ASM ATG AUS AUT AZE BDI BEL ... ZWE
#> 
#> Indexed by:  iso3c [216] | year [61] 
wlditbl[1:1000, 10]
#> # A tibble: 1,000 × 1
#>    LIFEEX
#>  *  <dbl>
#>  1   32.4
#>  2   33.0
#>  3   33.5
#>  4   34.0
#>  5   34.5
#>  6   34.9
#>  7   35.4
#>  8   35.9
#>  9   36.4
#> 10   36.9
#> # … with 990 more rows
#> 
#> Indexed by:  iso3c [17] | year [61] 
head(wlditbl)
#> # A tibble: 6 × 13
#>   country   iso3c date        year decade region income OECD  PCGDP LIFEEX  GINI
#> * <chr>     <fct> <date>     <int>  <int> <fct>  <fct>  <lgl> <dbl>  <dbl> <dbl>
#> 1 Afghanis… AFG   1961-01-01  1960   1960 South… Low i… FALSE    NA   32.4    NA
#> 2 Afghanis… AFG   1962-01-01  1961   1960 South… Low i… FALSE    NA   33.0    NA
#> 3 Afghanis… AFG   1963-01-01  1962   1960 South… Low i… FALSE    NA   33.5    NA
#> 4 Afghanis… AFG   1964-01-01  1963   1960 South… Low i… FALSE    NA   34.0    NA
#> 5 Afghanis… AFG   1965-01-01  1964   1960 South… Low i… FALSE    NA   34.5    NA
#> 6 Afghanis… AFG   1966-01-01  1965   1960 South… Low i… FALSE    NA   34.9    NA
#> # … with 2 more variables: ODA <dbl>, POP <dbl>
#> 
#> Indexed by:  iso3c [1] | year [6 (61)] 

library(data.table)
wldidt <- qDT(wlddev) %>% findex_by(iso3c, year)
wldidt[1:1000]      # Works like a data.table...
#>           country iso3c       date year decade                    region
#>    1: Afghanistan   AFG 1961-01-01 1960   1960                South Asia
#>    2: Afghanistan   AFG 1962-01-01 1961   1960                South Asia
#>    3: Afghanistan   AFG 1963-01-01 1962   1960                South Asia
#>    4: Afghanistan   AFG 1964-01-01 1963   1960                South Asia
#>    5: Afghanistan   AFG 1965-01-01 1964   1960                South Asia
#>   ---                                                                   
#>  996:    Barbados   BRB 1980-01-01 1979   1970 Latin America & Caribbean
#>            income  OECD    PCGDP LIFEEX GINI       ODA     POP
#>    1:  Low income FALSE       NA 32.446   NA 116769997 8996973
#>    2:  Low income FALSE       NA 32.962   NA 232080002 9169410
#>    3:  Low income FALSE       NA 33.471   NA 112839996 9351441
#>    4:  Low income FALSE       NA 33.971   NA 237720001 9543205
#>    5:  Low income FALSE       NA 34.463   NA 295920013 9744781
#>   ---                                                         
#>  996: High income FALSE 13042.10 71.800   NA  17260000  251351
#>  [ reached getOption("max.print") -- omitted 4 rows ]
…
#> 1  0.114 MULTIPOLYGON (((-81.47276 3...
#> 2  0.061 MULTIPOLYGON (((-81.23989 3...
#> 3  0.143 MULTIPOLYGON (((-80.45634 3...
#> 4  0.070 MULTIPOLYGON (((-76.00897 3...
#> 5  0.153 MULTIPOLYGON (((-77.21767 3...
#> 6  0.097 MULTIPOLYGON (((-76.74506 3...
#> 7  0.062 MULTIPOLYGON (((-76.00897 3...
#> 8  0.091 MULTIPOLYGON (((-76.56251 3...
#> 9  0.118 MULTIPOLYGON (((-78.30876 3...
#> 10 0.124 MULTIPOLYGON (((-80.02567 3...
#> 
#> Indexed by:  SID74 [6] 
st_centroid(nci) # The geometry column is never indexed, thus sf computations work normally
#> Warning: st_centroid assumes attributes are constant over geometries of x
#> Simple feature collection with 100 features and 14 fields
#> Geometry type: POINT
#> Dimension:     XY
#> Bounding box:  xmin: -84.05986 ymin: 34.07671 xmax: -75.8095 ymax: 36.49111
#> Geodetic CRS:  NAD27
#> First 10 features:
#>    AREA PERIMETER CNTY_ CNTY_ID        NAME  FIPS FIPSNO CRESS_ID BIR74 SID74
#> 1 0.114     1.442  1825    1825        Ashe 37009  37009        5  1091     1
#> 2 0.061     1.231  1827    1827   Alleghany 37005  37005        3   487     0
#> 3 0.143     1.630  1828    1828       Surry 37171  37171       86  3188     5
#> 4 0.070     2.968  1831    1831   Currituck 37053  37053       27   508     1
#> 5 0.153     2.206  1832    1832 Northampton 37131  37131       66  1421     9
#> 6 0.097     1.670  1833    1833    Hertford 37091  37091       46  1452     7
#>   NWBIR74 BIR79 SID79 NWBIR79                   geometry
#> 1      10  1364     0      19  POINT (-81.49823 36.4314)
#> 2      10   542     3      12 POINT (-81.12513 36.49111)
#> 3     208  3616     6     260 POINT (-80.68573 36.41252)
#> 4     123   830     2     145 POINT (-76.02719 36.40714)
#> 5    1066  1606     3    1197 POINT (-77.41046 36.42236)
#> 6     954  1838     5    1237 POINT (-76.99472 36.36142)
#>  [ reached 'max' / getOption("max.print") -- omitted 4 rows ]
…
