Transform Data by (Grouped) Replacing or Sweeping out Statistics — TRA • collapse
…
# grouped tibble method
library(dplyr)
iris %>%  group_by(Species) %>% TRA(fmean(.))
#> # A tibble: 150 x 8
#> # Groups:   Species [3]
#>    Sepal.Length Sepal.Width Petal.Length Petal.Width Species      wt AWMSL AWMSW
#>           <dbl>       <dbl>        <dbl>       <dbl> <fct>     <dbl> <dbl> <dbl>
#>  1       0.0940      0.0720      -0.062      -0.0460 setosa  -0.197  -0.02  0.24
#>  2      -0.106      -0.428       -0.062      -0.0460 setosa  -0.135  -0.02 -0.76
#>  3      -0.306      -0.228       -0.162      -0.0460 setosa  -0.743  -0.02  0.24
#>  4      -0.406      -0.328        0.0380     -0.0460 setosa  -0.648  -0.02 -0.76
#>  5      -0.006       0.172       -0.062      -0.0460 setosa  -0.227  -0.02  0.24
#>  6       0.394       0.472        0.238       0.154  setosa   0.0251 -0.02  0.24
#>  7      -0.406      -0.028       -0.062       0.054  setosa  -0.382  -0.02  0.24
#>  8      -0.006      -0.028        0.0380     -0.0460 setosa   0.0687 -0.02  0.24
#>  9      -0.606      -0.528       -0.062      -0.0460 setosa  -0.492  -0.02 -0.76
#> 10      -0.106      -0.328        0.0380     -0.146  setosa  -0.584  -0.02 -0.76
#> # ... with 140 more rows
iris %>%  group_by(Species) %>% fmean(TRA = "-")        # Same thing
#> # A tibble: 150 x 8
#> # Groups:   Species [3]
#>    Species Sepal.Length Sepal.Width Petal.Length Petal.Width      wt AWMSL AWMSW
#>  * <fct>          <dbl>       <dbl>        <dbl>       <dbl>   <dbl> <dbl> <dbl>
#>  1 setosa        0.0940      0.0720      -0.062      -0.0460 -0.197  -0.02  0.24
#>  2 setosa       -0.106      -0.428       -0.062      -0.0460 -0.135  -0.02 -0.76
#>  3 setosa       -0.306      -0.228       -0.162      -0.0460 -0.743  -0.02  0.24
#>  4 setosa       -0.406      -0.328        0.0380     -0.0460 -0.648  -0.02 -0.76
#>  5 setosa       -0.006       0.172       -0.062      -0.0460 -0.227  -0.02  0.24
#>  6 setosa        0.394       0.472        0.238       0.154   0.0251 -0.02  0.24
#>  7 setosa       -0.406      -0.028       -0.062       0.054  -0.382  -0.02  0.24
#>  8 setosa       -0.006      -0.028        0.0380     -0.0460  0.0687 -0.02  0.24
#>  9 setosa       -0.606      -0.528       -0.062      -0.0460 -0.492  -0.02 -0.76
#> 10 setosa       -0.106      -0.328        0.0380     -0.146  -0.584  -0.02 -0.76
#> # ... with 140 more rows
iris %>%  group_by(Species) %>% TRA(fmean(.)[c(2,4)])   # Only transforming 2 columns
#> # A tibble: 150 x 8
#> # Groups:   Species [3]
#>    Sepal.Length Sepal.Width Petal.Length Petal.Width Species    wt AWMSL AWMSW
#>           <dbl>       <dbl>        <dbl>       <dbl> <fct>   <dbl> <lgl> <lgl>
#>  1       0.0940         3.5      -0.062          0.2 setosa  0.685 FALSE TRUE
#>  2      -0.106          3        -0.062          0.2 setosa  0.747 FALSE FALSE
#>  3      -0.306          3.2      -0.162          0.2 setosa  0.139 FALSE TRUE
#>  4      -0.406          3.1       0.0380         0.2 setosa  0.233 FALSE FALSE
#>  5      -0.006          3.6      -0.062          0.2 setosa  0.655 FALSE TRUE
#>  6       0.394          3.9       0.238          0.4 setosa  0.907 FALSE TRUE
#>  7      -0.406          3.4      -0.062          0.3 setosa  0.500 FALSE TRUE
#>  8      -0.006          3.4       0.0380         0.2 setosa  0.950 FALSE TRUE
#>  9      -0.606          2.9      -0.062          0.2 setosa  0.390 FALSE FALSE
#> 10      -0.106          3.1       0.0380         0.1 setosa  0.297 FALSE FALSE
#> # ... with 140 more rows
iris %>%  group_by(Species) %>% TRA(fmean(.)[c(2,4)],   # Dropping species column
                            keep.group_vars = FALSE)
#> # A tibble: 150 x 7
#> # Groups:   Species [3]
#>    Sepal.Length Sepal.Width Petal.Length Petal.Width    wt AWMSL AWMSW
#>  *        <dbl>       <dbl>        <dbl>       <dbl> <dbl> <lgl> <lgl>
#>  1       0.0940         3.5      -0.062          0.2 0.685 FALSE TRUE
#>  2      -0.106          3        -0.062          0.2 0.747 FALSE FALSE
#>  3      -0.306          3.2      -0.162          0.2 0.139 FALSE TRUE
#>  4      -0.406          3.1       0.0380         0.2 0.233 FALSE FALSE
#>  5      -0.006          3.6      -0.062          0.2 0.655 FALSE TRUE
#>  6       0.394          3.9       0.238          0.4 0.907 FALSE TRUE
#>  7      -0.406          3.4      -0.062          0.3 0.500 FALSE TRUE
#>  8      -0.006          3.4       0.0380         0.2 0.950 FALSE TRUE
#>  9      -0.606          2.9      -0.062          0.2 0.390 FALSE FALSE
#> 10      -0.106          3.1       0.0380         0.1 0.297 FALSE FALSE
#> # ... with 140 more rows
…
